>>> from still_life_patterns import *
>>> from test_destruct import *

>>> f = Field(5, 5, 2)
>>> f.from_str('..o..')
Field(5, 5)

>>> fs = Fields([f])
>>> for i in range(1, 5):
...   fs.destruct(0, by=(i,0))
>>> del fs[0]
>>> fs.pp
..o.. ..o.. ..o.. ..o..
.???? .???? .???? o????
.???? .???? o???? ?????
.???? o???? ????? ?????
o???? ????? ????? ?????

>>> fs.mut_relax()
>>> fs.pp
..o.. ..o.. ..o.. ..o..
..o?? .???? .???? o????
.o.?? .???? o???? ?????
.o.?? o???? ????? ?????
oo.?? ????? ????? ?????
F     U     U     U

>>> fs.falses.pp
..o..
..o??
.o.??
.o.??
oo.??
F

>>> fs.unknowns.pp
..o.. ..o.. ..o..
.???? .???? o????
.???? o???? ?????
o???? ????? ?????
????? ????? ?????

>>> for i in reversed(range(1, 4)):
...   fs.destruct(i, by=(4-i,1))
>>> fs.pp
..o.. ..o.. ..o.. ..o.. ..o.. ..o.. ..o..
..o?? .???? .???? .???? .???? o.??? oo???
.o.?? .???? .???? o.??? oo??? ????? ?????
.o.?? o.??? oo??? ????? ????? ????? ?????
oo.?? ????? ????? ????? ????? ????? ?????
F     U     U     U     U     U     U

>>> fs.mut_relax()
>>> fs.pp
..o.. ..o.. ..o.. ..o.. ..o.. ..o.. ..o..
..o?? .???? .???? .???? ..ooo o.o?? ooo??
.o.?? .???? .???? o.??? oo..o ????? .o???
.o.?? o.??? oo??? ????? ????? ????? ?????
oo.?? ????? ????? ????? ????? ????? ?????
F     U     U     U     F     F     F

>>> fs.clear_unsat()
>>> fs.pp
..o.. ..o.. ..o..
.???? .???? .????
.???? .???? o.???
o.??? oo??? ?????
????? ????? ?????

>>> upper_unknown_in_column = [[f[i, 0] for i in range(f.h)].index(2) for f in fs]
>>> upper_unknown_in_column
[4, 4, 3]

>>> for n in reversed(range(len(fs))):
...   i = upper_unknown_in_column[n]
...   fs.destruct(n, by=(i, 0))

>>> fs.pp
..o.. ..o.. ..o.. ..o.. ..o.. ..o..
.???? .???? .???? .???? .???? .????
.???? .???? .???? .???? o.??? o.???
o.??? o.??? oo??? oo??? .???? o????
.???? o???? .???? o???? ????? ?????

>>> fs.mut_relax()
>>> fs.clear_unsat()
>>> fs.pp
..o.. ..o.. ..o.. ..o.. ..o..
.???? .o.o. .???? .o.o. .????
.???? .o.?? .???? o.??? o.???
o.??? oo.?? oo??? .o??? o????
oo.?? ...?? o???? ????? .????

>>> fs.destruct(1, by=(4, 3))
>>> fs.destruct(1, by=(4, 4))

TODO: replace two lines below by one method
> prune_by_constraint(fs, 1, constraint=...)

>>> assert sum(fs[1][f.h - 1, j] for j in range(f.w)) == 0
>>> del fs[1] # zero sum in lower row

>>> g = fs[2].c((4, 4), 1).c((3, 4), 1).c((2,f.w-1), 0).c((3,3), 0); g.pp
..o..
.o.o.
.o.?.
oo..o
...oo

>>> assert g <= vmirror(fs[0])
>>> assert not g <= hmirror(fs[0])

>>> fs.destruct(3, by=(f.h-1, 1))
>>> fs.pp
..o.. ..o.. ..o.. ..o.. ..o.. ..o.. ..o..
.???? .o.o. .o.o. .???? .???? .o.o. .????
.???? .o.?? .o.?? .???? .???? o.??? o.???
o.??? oo.?? oo.?? oo??? oo??? .o??? o????
oo.?? ....o ...o? o.??? oo??? ????? .????

>>> fs.mut_relax()
>>> fs.pp
..o.. ..o.. ..o.. ..o.. ..o.. ..o.. ..o..
.???? .o.o. .o.o. .???? ..o?? .o.o. .????
.???? .o.?? .o.oo .???? ...?? o.??? o.???
o.??? oo.oo oo..o oo??? oo.?? .o??? o????
oo.?? ....o ...oo o.??? oo.?? ????? .????
U     F     F     U     F     U     U

>>> fs.clear_unsat()
>>> fs.pp
..o.. ..o.. ..o.. ..o..
.???? .???? .o.o. .????
.???? .???? o.??? o.???
o.??? oo??? .o??? o????
oo.?? o.??? ????? .????

>>> for n in [3, 1, 0]:
...   fs.destruct(n, by=(1, 1))
>>> fs.pp
..o.. ..o.. ..o.. ..o.. ..o.. ..o.. ..o..
..??? .o??? ..??? .o??? .o.o. ..??? .o???
.???? .???? .???? .???? o.??? o.??? o.???
o.??? o.??? oo??? oo??? .o??? o???? o????
oo.?? oo.?? o.??? o.??? ????? .???? .????

>>> fs.mut_relax()
>>> fs.pp
..o.. ..o.. ..o.. ..o.. ..o.. ..o.. ..o..
..ooo .o.o. ..ooo .o.o. .o.o. ..ooo .o.o.
.?..o ..o.o ....o .o.?? o.??? o.o?? o.???
o.??? o.o.. oo??? oo.?? .o??? o???? o????
oo.?? oo... o.??? o.o?? ????? .???? .????
F     F     F     F     U     F     U

>>> fs.clear_unsat()
>>> fs.pp
..o.. ..o..
.o.o. .o.o.
o.??? o.???
.o??? o????
????? .????

Right column `fs[_][_, f.w-1]` contains only 3 question marks.
Let's destruct on right column:

>>> fs.destruct(1, by=(2, f.w-1))
>>> fs.destruct(0, by=(2, f.w-1))
>>> fs.destruct(2, by=(3, f.w-1))
>>> fs.destruct(0, by=(3, f.w-1))
>>> fs.destruct(3, by=(4, f.w-1))
>>> fs.destruct(0, by=(4, f.w-1))
>>> fs.pp
..o.. ..o.. ..o.. ..o.. ..o.. ..o.. ..o.. ..o..
.o.o. .o.o. .o.o. .o.o. .o.o. .o.o. .o.o. .o.o.
o.??. o.??. o.??. o.??o o.??. o.??. o.??. o.??o
.o??. .o??. .o??o .o??? o???. o???. o???o o????
????. ????o ????? ????? .???. .???o .???? .????

TODO: Enumerate all possible actions in that state.

Ideas:
* We can reduce size of field by creating new:
  > fs_new.pp
  .o.o. .o.o. .o.o. .o.o. .o.o. .o.o. .o.o. .o.o. # Can we avoid this row?
  o.??. o.??. o.??. o.??o o.??. o.??. o.??. o.??o
  .o??. .o??. .o??o .o??? o???. o???. o???o o????
  ????. ????o ????? ????? .???. .???o .???? .????


Now we can glue something.

Opinion: Manually really hard to spot what to glue.
Let's check all possible glue cases:

>>> fs.inside_pairs()
[]

Dammit! No pairs! What else we can do in that state?
Let's check all possible glue cases up to symmetry equivalences:

Meta-Actions: (It's really META or not? Maybe it's a just a group of actions)
* We can dive in or
* We can not dive in, and just think about "whole thing", waiting for 
  some unpredictable ideas (like moves of opponent in chess)

TODO: Why we deleted fs[0] and fs[4]?

>>> del fs[4]; del fs[0]
>>> fs.pp
..o.. ..o.. ..o.. ..o.. ..o.. ..o..
.o.o. .o.o. .o.o. .o.o. .o.o. .o.o.
o.??. o.??. o.??o o.??. o.??. o.??o
.o??. .o??o .o??? o???. o???o o????
????o ????? ????? .???o .???? .????

>>> fs.mut_relax()
>>> fs.pp
..o.. ..o.. ..o.. ..o.. ..o.. ..o..
.o.o. .o.o. .o.o. .o.o. .o.o. .o.o.
o..o. o.??. o.o.o o.?o. o.??. o.o.o
.o?o. .o??o .o..o o??o. o???o o????
???oo ????? ..oo. .??oo .???? .????
F     U     T     F     U     U

>>> fs.sort_by_status()
>>> fs.pp
..o.. ..o.. ..o.. ..o.. ..o.. ..o..
.o.o. .o.o. .o.o. .o.o. .o.o. .o.o.
o.??. o.??. o.o.o o.o.o o..o. o.?o.
.o??o o???o o???? .o..o .o?o. o??o.
????? .???? .???? ..oo. ???oo .??oo
U     U     U     T     F     F

>>> fs.destruct(2, by=(4, 4))
>>> fs.destruct(0, by=(3, 3))
>>> fs.mut_relax()
>>> fs.pp
..o.. ..o.. ..o.. ..o.. ..o.. ..o.. ..o.. ..o..
.o.o. .o.o. .o.o. .o.o. .o.o. .o.o. .o.o. .o.o.
o.o.. o..o. o.??. o.o.o o.o.o o.o.o o..o. o.?o.
.oo.o .oooo o???o o???? o??o. .o..o .o?o. o??o.
???oo ????? .???? .???. .??oo ..oo. ???oo .??oo
F     F     U     U     F     T     F     F

>>> clear_unsat(fs, False)
>>> fs.pp
..o.. ..o.. ..o..
.o.o. .o.o. .o.o.
o.??. o.o.o o.o.o
o???o o???? .o..o
.???? .???. ..oo.
U     U     T

Below we glue solution `T` with second unknown `U`.
And of course it's not optimal action or
  we already make some unoptimal actions in the past.
TODO: Compute exact list of unoptimal actions `P1`.
  And compute optimal path `P2` (not full just part).
  Then compare `P1` with `P2`. Maybe do some cool graphics, graphs that helps us to view properties of paths, ...

vmirror(fs[2]) in fs[1]
>>> fs.vmirror(2)
>>> assert fs.inside(2, 1)
>>> fs.glue(2, 1) # deleted fs[2]

>>> for n in [1, 0]:
...   fs.destruct(n, by=(3, 3)) # (3, 3) optimal than [(3, 2), (3, 1), (4, _)]
>>> fs.mut_relax()
>>> fs.pp
..o.. ..o.. ..o.. ..o..
.o.o. .o.o. .o.o. .o.o.
o.o.. o..o. o.o.o o.o.o
o.o.o oo.oo o??.o o..o.
.o.oo ...o? .??o. .oo..
F     F     U     T

TODO[x]: create structure for fields
> fs.unknowns
print only U's
> fs.trues
> fs.falses

>>> us = fs.unknowns; us.pp
..o..
.o.o.
o.o.o
o??.o
.??o.

>>> us.destruct(0, by=(3, 1))
>>> us.mut_relax()
>>> us.pp
..o.. ..o..
.o.o. .o.o.
o.o.o o.o.o
o.o.o oo..o
.o.o. ..oo.
F     F

>>> fs.trues.pp
..o..
.o.o.
o.o.o
o..o.
.oo..
T
